

			{	1600
AurumCore	{	1749
			
Aurum		{	1750
Steampunk	{	1999
			
AurumDeco	{	2000
			{	2199
			
AurumSylve	{	2200
			{	2399
			
Aurum		{   2400
Equipments 	{	2549
			
Aurum Magie	{   2550
			{	2999
			
Aurum 		{	3000
Liquids		{	3100